{
	"id": "07e86b11-dbd3-4755-bba8-ed52953d83d8",
	"name": "HealthyFoodEnv",
	"values": [
		{
			"key": "baseUrl",
			"value": "http://localhost:8080",
			"enabled": true
		},
		{
			"key": "testerUsername",
			"value": "atlantis.tester2@gmail.com",
			"enabled": true
		},
		{
			"key": "testerPassword",
			"value": "Test1234%",
			"enabled": true
		},
		{
			"key": "testerID",
			"value": "2",
			"enabled": true
		},
		{
			"key": "adminUsername",
			"value": "atlantis.final.project@gmail.com",
			"enabled": true
		},
		{
			"key": "adminPassword",
			"value": "Alabal@123",
			"enabled": true
		},
		{
			"key": "adminID",
			"value": "1",
			"enabled": true
		}
	],
	"_postman_variable_scope": "environment",
	"_postman_exported_at": "2020-11-22T09:11:03.768Z",
	"_postman_exported_using": "Postman/7.36.0"
}